IntegerDataPath/isim.log
ISim log file
Running: C:\Users\Victor Espinoza\Desktop\CECS 301\Lab 6- Integer Data Path\IntegerDataPath\alu_tb_isim_beh.exe -intstyle ise -gui -tclbatch isim.cmd -wdb C:/Users/Victor Espinoza/Desktop/CECS 301/Lab 6- Integer Data Path/IntegerDataPath/alu_tb_isim_beh.wdb 
ISim P.20131013 (signature 0x7708f090)
----------------------------------------------------------------------
WARNING:Security:42 - Your software subscription period has lapsed. Your current version of Xilinx tools will continue to function, but you no longer qualify for Xilinx software updates or new releases.


----------------------------------------------------------------------
This is a Full version of ISim.
Time resolution is 1 ps
# onerror resume
# wave add /
# run 1000 ns
Simulator is doing circuit initialization process.
Finished circuit initialization process.
R=0001 S=0003 Y=0003 C=0
R=0002 S=0004 Y=0004 C=0
R=0003 S=0005 Y=0005 C=0
R=0004 S=0006 Y=0006 C=0
R=0004 S=0006 Y=0004 C=0
R=0005 S=0007 Y=0005 C=0
R=0006 S=0008 Y=0006 C=0
R=0007 S=0009 Y=0007 C=0
R=0001 S=0001 Y=0002 C=0
R=0003 S=0005 Y=0008 C=0
R=0005 S=0009 Y=000e C=0
R=0007 S=000d Y=0014 C=0
R=0005 S=0001 Y=0004 C=0
R=0008 S=0002 Y=0006 C=0
R=0011 S=0005 Y=000c C=0
R=0020 S=000a Y=0016 C=0
R=0003 S=0001 Y=0002 C=0
R=0008 S=0006 Y=0007 C=0
R=000d S=000b Y=000c C=0
R=0012 S=0010 Y=0011 C=0
R=0004 S=0002 Y=0001 C=0
R=0005 S=0003 Y=0002 C=0
R=000c S=000a Y=0009 C=0
R=001f S=001d Y=001c C=0
R=0008 S=0004 Y=0008 C=0
R=0009 S=0005 Y=000a C=0
R=000a S=0006 Y=000c C=0
R=000b S=0007 Y=000e C=0
R=0003 S=0001 Y=0000 C=1
R=0005 S=0003 Y=0001 C=1
R=0007 S=0005 Y=0002 C=1
R=0009 S=0007 Y=0003 C=1
R=0005 S=0002 Y=0000 C=0
R=0006 S=0003 Y=0002 C=0
R=0007 S=0004 Y=0004 C=0
R=0008 S=0005 Y=0000 C=0
R=0003 S=0006 Y=0007 C=0
R=0004 S=0007 Y=0007 C=0
R=0005 S=0008 Y=000d C=0
R=0006 S=0009 Y=000f C=0
R=0000 S=0004 Y=0004 C=0
R=0002 S=0005 Y=0007 C=0
R=0004 S=0006 Y=0002 C=0
R=0006 S=0007 Y=0001 C=0
R=0000 S=0009 Y=fff6 C=0
R=0001 S=000a Y=fff5 C=0
R=0002 S=000b Y=fff4 C=0
R=0003 S=000c Y=fff3 C=0
R=0000 S=0003 Y=fffd C=0
R=0001 S=0005 Y=fffb C=0
R=0002 S=0007 Y=fff9 C=0
R=0003 S=0009 Y=fff7 C=0
R=0007 S=0002 Y=0002 C=0
R=0005 S=0001 Y=0001 C=0
R=0001 S=0000 Y=0000 C=0
R=fffb S=ffff Y=ffff C=0
